…
<details>
<summary>Show code</summary>
<div class="sourceCode"><pre class="sourceCode r"><code class="sourceCode r"><span class='fu'><a href='https://rdrr.io/r/base/levels.html'>levels</a></span><span class='op'>(</span><span class='va'>simplified_names</span><span class='op'>$</span><span class='va'>rounded</span><span class='op'>)</span> <span class='op'>&lt;-</span> <span class='fu'><a href='https://rdrr.io/r/base/c.html'>c</a></span><span class='op'>(</span><span class='st'>"Lightness: 0.2, n = 28"</span>,
                                      <span class='st'>"Lightness: 0.4, n = 148"</span>,
                                      <span class='st'>"Lightness: 0.6, n = 221"</span>,
                                      <span class='st'>"Lightness: 0.8, n = 217"</span>,
                                      <span class='st'>"Lightness: 1.0, n = 50"</span><span class='op'>)</span>
<span class='va'>simplified_names</span>
</code></pre></div>

</details>

```
# A tibble: 664 x 7
   rounded                 word       n total     tf   idf tf_idf
   <fct>                   <chr>  <int> <int>  <dbl> <dbl>  <dbl>
 1 Lightness: 0.8, n = 217 light    156  1512 0.103  0.511 0.0527
 2 Lightness: 0.6, n = 221 medium   129  1401 0.0921 0.223 0.0205
 3 Lightness: 0.6, n = 221 tan      118  1401 0.0842 0.511 0.0430
 4 Lightness: 0.8, n = 217 ivory    113  1512 0.0747 0.223 0.0167
 5 Lightness: 0.8, n = 217 beige    104  1512 0.0688 0.223 0.0153
 6 Lightness: 0.4, n = 148 deep      99   748 0.132  0     0     
 7 Lightness: 0.8, n = 217 fair      92  1512 0.0608 0.511 0.0311
 8 Lightness: 0.6, n = 221 beige     90  1401 0.0642 0.223 0.0143
 9 Lightness: 0.8, n = 217 warm      82  1512 0.0542 0.223 0.0121
10 Lightness: 0.6, n = 221 warm      80  1401 0.0571 0.223 0.0127
# … with 654 more rows
```
…
