Reshaping data frames using pivot functions from {tidyr} and tally from {dplyr}
…
# Loading data
tt <- tt_load("2022-07-05")

    Downloading file 1 of 3: `rent.csv`
    Downloading file 2 of 3: `sf_permits.csv`
    Downloading file 3 of 3: `new_construction.csv`

Reshaping a
data frame by summarising variables

# Printing a summary of the San Francisco (SF) permits data frame
tt$sf_permits

# A tibble: 86,103 × 44
   permit_number permit_type permit_type_definiti… permit_creation_da…
           <dbl>       <dbl> <chr>                 <dttm>             
 1    2000010368           3 additions alteration… 2000-01-03 00:00:00
 2    2000010353           6 demolitions           2000-01-03 00:00:00
 3    2000010498           3 additions alteration… 2000-01-04 00:00:00
 4    2000010484           3 additions alteration… 2000-01-04 00:00:00
 5    2000010480           3 additions alteration… 2000-01-04 00:00:00
 6    2000010475           3 additions alteration… 2000-01-04 00:00:00
 7    2000010476           3 additions alteration… 2000-01-04 00:00:00
 8    2000010474           3 additions alteration… 2000-01-04 00:00:00
 9    2000010479           3 additions alteration… 2000-01-04 00:00:00
10   20000104173           3 additions alteration… 2000-01-04 00:00:00
# … with 86,093 more rows, and 40 more variables: block <chr>,
#   lot <chr>, street_number <dbl>, street_number_suffix <chr>,
#   street_name <chr>, street_suffix <chr>, unit <dbl>,
#   unit_suffix <chr>, description <chr>, status <chr>,
#   status_date <dttm>, filed_date <dttm>, issued_date <dttm>,
#   completed_date <dttm>, first_construction_document_date <dttm>,
#   structural_notification <chr>, …
…
[1] "tt$sf_permits has 86103 rows and 44 columns."

# Creating a tall/narrow data set of permits per street
permits_per_street <- tt$sf_permits %>%
  # Selecting variables/columns to keep
  select(permit_type_definition, street_name, permit_number) %>%
  # Grouping the permit numbers by type and street name for counting
  group_by(permit_type_definition, street_name) %>%
  # Counting/tallying the number of permits by type per street
  tally()

# Printing a summary of the permits per street data frame
permits_per_street

# A tibble: 3,053 × 3
# Groups:   permit_type_definition [4]
   permit_type_definition           street_name     n
   <chr>                            <chr>       <int>
 1 additions alterations or repairs 01st          196
 2 additions alterations or repairs 02nd          763
 3 additions alterations or repairs 03rd          778
 4 additions alterations or repairs 04th          338
 5 additions alterations or repairs 05th          223
 6 additions alterations or repairs 06th          347
 7 additions alterations or repairs 07th          199
 8 additions alterations or repairs 08th          252
 9 additions alterations or repairs 08th Ti         1
10 additions alterations or repairs 09th          301
# … with 3,043 more rows
…
# Printing a summary of the shape of the data frame
paste("permits_per_street_wider has", nrow(permits_per_street_wider), "rows and",
  ncol(permits_per_street_wider), "columns.")

[1] "permits_per_street_wider has 4 rows and 1588 columns."

Reshaping
a data frame to make it more narrow with the {tidyr} function pivot
longer

# Printing a summary of the new construction data frame
tt$new_construction

# A tibble: 261 × 10
   cartodb_id the_geom the_geom_webmerca… county  year totalproduction
        <dbl> <lgl>    <lgl>              <chr>  <dbl>           <dbl>
 1          1 NA       NA                 Alame…  1990            3601
 2          2 NA       NA                 Alame…  1991             226
 3          3 NA       NA                 Alame…  1992            2652
 4          4 NA       NA                 Alame…  1993            3049
 5          5 NA       NA                 Alame…  1994            2617
 6          6 NA       NA                 Alame…  1995            3515
 7          7 NA       NA                 Alame…  1996            3179
 8          8 NA       NA                 Alame…  1997            4591
 9          9 NA       NA                 Alame…  1998            6022
10         10 NA       NA                 Alame…  1999            5601
# … with 251 more rows, and 4 more variables: sfproduction <dbl>,
#   mfproduction <dbl>, mhproduction <dbl>, source <chr>
…
# Printing a summary of the production per county data frame
production_per_county

# A tibble: 1,044 × 4
   county          year value production_type
   <chr>          <dbl> <dbl> <fct>          
 1 Alameda County  1990  3601 Total          
 2 Alameda County  1990  2166 Single family  
 3 Alameda County  1990  1378 Multi family   
 4 Alameda County  1990    57 Mobile home    
 5 Alameda County  1991   226 Total          
 6 Alameda County  1991  -236 Single family  
 7 Alameda County  1991   395 Multi family   
 8 Alameda County  1991    67 Mobile home    
 9 Alameda County  1992  2652 Total          
10 Alameda County  1992  2018 Single family  
# … with 1,034 more rows
…
